[
		{
			"id": 0,
			"name":"Ksiazka nr 1",
			"price":23.49,
			"img":"https://cdn2.iconfinder.com/data/icons/windows-8-metro-style/128/book_stack.png"
		},
		{
			"id": 1,
			"name":"Ksiazka nr 2",
			"price":30,
			"img":"https://cdn2.iconfinder.com/data/icons/windows-8-metro-style/128/book_stack.png"
		},
		{
			"id": 2,
			"name":"Ksiazka nr 3",
			"price":23.49,
			"img":"https://cdn2.iconfinder.com/data/icons/windows-8-metro-style/128/book_stack.png"
		}
	]